,run_name,dataset,period,infectivity,growth_rate,seed,corr,gen_shape,gen_scale,log_llk
0,"('refined', 41, 'logbiv', 0.1)",refined,41,logbiv,0.1,,0.9040068136805707,0.6601209251026695,8.540204592011705,106.89745433590753
1,"('refined', 42, 'logbiv', 0.1)",refined,42,logbiv,0.1,,0.8912372107847253,0.6904614946244155,8.314787999119632,125.92717629592613
2,"('refined', 43, 'logbiv', 0.1)",refined,43,logbiv,0.1,,0.8682721948075405,0.6407326560332149,8.451925012396234,143.7949409011199
3,"('refined', 44, 'logbiv', 0.1)",refined,44,logbiv,0.1,,0.8991778126051391,0.6605203822648458,8.824805013324232,171.94575102251972
4,"('refined', 45, 'logbiv', 0.1)",refined,45,logbiv,0.1,,0.8346336655753748,0.6446633165972052,8.532218608846936,211.17029335307967
5,"('refined', 46, 'logbiv', 0.1)",refined,46,logbiv,0.1,,0.8204519348452679,0.6766077214210893,8.06098125190567,241.52377468033237
6,"('refined', 47, 'logbiv', 0.1)",refined,47,logbiv,0.1,,0.7484248422558516,0.6427131888854288,7.872346367957977,289.74376256830885
7,"('refined', 48, 'logbiv', 0.1)",refined,48,logbiv,0.1,,0.5396538896953194,0.6083790697470969,6.852796808293024,435.08668301828476
8,"('refined', 49, 'logbiv', 0.1)",refined,49,logbiv,0.1,,0.3515653812575487,0.5218316994102633,6.517109883422579,554.4595650972359
9,"('refined', 50, 'logbiv', 0.1)",refined,50,logbiv,0.1,,0.23364692239575885,0.4788981945414049,6.218498155360055,670.3693120425372
10,"('refined', 51, 'logbiv', 0.1)",refined,51,logbiv,0.1,,0.2160721095278111,0.5036568763723822,5.905969086731483,814.245241841931
11,"('refined', 52, 'logbiv', 0.1)",refined,52,logbiv,0.1,,0.2467447182824662,0.4949843681636114,5.67568449179467,985.5145829668586
12,"('refined', 53, 'logbiv', 0.1)",refined,53,logbiv,0.1,,0.2496504934367344,0.5407915007195068,5.374190114724225,1262.6334869496613
13,"('refined', 54, 'logbiv', 0.1)",refined,54,logbiv,0.1,,0.2513608127747444,0.5774853846432618,5.146560609858574,1487.4372931078492
14,"('refined', 55, 'logbiv', 0.1)",refined,55,logbiv,0.1,,0.28108495404207046,0.6084050663287576,4.889060232644541,1738.8326458759282
