,run_name,dataset,period,infectivity,growth_rate,seed,corr,gen_shape,gen_scale,log_llk
0,"('Ali', 47, 'logbiv', 0.1)",Ali,47,logbiv,0.1,,0.7567932668998835,0.5609506549123447,6.804924331774295,146.0001602068545
1,"('Du', 47, 'logbiv', 0.1)",Du,47,logbiv,0.1,,0.7889734335170835,0.6543792481311869,6.860906501684017,173.66723758587702
2,"('Ganyani', 47, 'logbiv', 0.1)",Ganyani,47,logbiv,0.1,,0.7345482060399632,0.6505280722970256,7.902666279834817,277.1899367148451
3,"('Li', 47, 'logbiv', 0.1)",Li,47,logbiv,0.1,,0.7149529687956958,0.6391324534795396,8.050217100447627,270.99168584714505
4,"('Wu', 47, 'logbiv', 0.1)",Wu,47,logbiv,0.1,,0.7116905116578973,0.6610592367796618,8.005101615051384,254.54357815650437
5,"('Zhang', 47, 'logbiv', 0.1)",Zhang,47,logbiv,0.1,,0.6992432089144319,0.6664964076528241,7.981432886058434,255.6689293318103
6,"('Zhao', 47, 'logbiv', 0.1)",Zhao,47,logbiv,0.1,,0.7573477447739552,0.6545143811989108,7.789047203798339,282.5609968344297
7,"('He', 47, 'logbiv', 0.1)",He,47,logbiv,0.1,,0.7390166402198828,0.6301039542627017,7.886254915876256,276.6269212389142
8,"('Liao', 47, 'logbiv', 0.1)",Liao,47,logbiv,0.1,,0.8355568903411265,0.6750655187402343,8.059423485035651,283.6097353231669
9,"('Ren', 47, 'logbiv', 0.1)",Ren,47,logbiv,0.1,,0.6460655421324689,0.6099729571432447,8.286497359735323,236.79134560632298
10,"('Xia', 47, 'logbiv', 0.1)",Xia,47,logbiv,0.1,,0.7484248422558516,0.6427131888854288,7.872346367957977,289.74376256830885
11,"('Yang', 47, 'logbiv', 0.1)",Yang,47,logbiv,0.1,,0.7418368962973094,0.6005564740665458,8.166288023838668,276.5139973211562
